<?xml version="1.0" encoding="utf-8"?>
<!-- Generator: Adobe Illustrator 27.5.0, SVG Export Plug-In . SVG Version: 6.00 Build 0)  -->
<svg version="1.1" id="Layer_1" xmlns="http://www.w3.org/2000/svg" xmlns:xlink="http://www.w3.org/1999/xlink" x="0px" y="0px"
	 viewBox="0 0 114.35 119.18" style="enable-background:new 0 0 114.35 119.18;" xml:space="preserve">
<style type="text/css">
	.st0{fill:#25B99A;}
</style>
<g>
	<g>
		<path class="st0" d="M110.05,5.81c0,0-35.47-3.91-55.35,20.68c0,0-9.65-2.35-11.53-0.71c-1.88,1.65-17.12,13.83-20.82,19.77
			c-0.87,1.39-1.3,3.06-0.12,5.41c1.18,2.35,14.12,7.53,14.12,7.53c-0.05,0-10.63,7.98-13.32,17.29c-1.52,5.24-1.98,4.36-0.09,11.88
			c0,0-1.77,2.3,0.29,4.71l0.4,0.4c2.41,2.06,4.71,0.29,4.71,0.29c7.53,1.89,6.64,1.43,11.88-0.08c9.31-2.7,17.29-13.27,17.29-13.33
			c0,0,5.18,12.94,7.53,14.12c2.36,1.18,4.02,0.75,5.41-0.12c5.94-3.7,18.12-18.94,19.77-20.82c1.65-1.88-0.71-11.53-0.71-11.53
			C114.1,41.42,110.05,5.81,110.05,5.81z M35.15,48.82c-0.37-0.37-0.56-0.85-0.56-1.34c0-0.48,0.19-0.96,0.56-1.33l11.07-11.07
			c0.73-0.73,1.93-0.73,2.67,0c0.36,0.37,0.55,0.86,0.55,1.34s-0.19,0.96-0.55,1.33L37.82,48.82
			C37.08,49.56,35.89,49.56,35.15,48.82z M53.19,75.79c-0.22,0.53-0.43,0.89-0.62,1.08s-0.4,0.3-0.64,0.31l-12.54-0.01
			c-0.48,0.02-0.81-0.05-0.99-0.23s-0.26-0.44-0.24-0.79l-0.49-13.07c-0.01-0.22,0.09-0.43,0.29-0.63c0.19-0.2,0.57-0.41,1.12-0.64
			c0.55-0.22,1.1-0.31,1.64-0.26c0.53,0.05,0.87,0.14,1.01,0.28c0.14,0.14,0.2,0.31,0.19,0.52l0.01,10.96l10.73-0.39
			c0.2-0.01,0.38,0.05,0.51,0.19c0.14,0.14,0.24,0.49,0.29,1.04C53.5,74.71,53.42,75.25,53.19,75.79z M63.06,73.73
			c-0.27,0.27-0.6,0.48-0.98,0.64c-0.98,0.39-1.75,0.51-2.31,0.35c-0.15-0.04-0.27-0.11-0.36-0.2c-0.09-0.09-0.15-0.2-0.18-0.34
			l-7.2-32.52c-0.09-0.27,0-0.53,0.26-0.8c0.26-0.26,0.59-0.48,1-0.65c0.94-0.39,1.7-0.5,2.28-0.32C55.76,39.93,55.9,40,56,40.1
			c0.09,0.09,0.16,0.19,0.19,0.3l7.2,32.52C63.44,73.19,63.33,73.46,63.06,73.73z M61.77,42.51c-0.21,0.01-0.38-0.06-0.52-0.2
			s-0.23-0.47-0.29-1.01c-0.04-0.54,0.05-1.08,0.28-1.62c0.23-0.55,0.45-0.91,0.64-1.1s0.39-0.3,0.62-0.33l13.07,0.49
			c0.34-0.01,0.61,0.07,0.78,0.25c0.18,0.18,0.26,0.51,0.24,0.99v12.53c-0.01,0.24-0.11,0.45-0.3,0.64
			c-0.19,0.19-0.56,0.41-1.1,0.64c-0.54,0.23-1.09,0.32-1.63,0.26c-0.55-0.06-0.89-0.15-1.03-0.29c-0.14-0.14-0.2-0.31-0.19-0.52
			l0.39-10.73H61.77z M81.07,68.94L70.01,80.01c-0.74,0.73-1.94,0.73-2.67,0l-0.36-0.36c-0.74-0.74-0.74-1.94,0-2.67l11.06-11.07
			c0.74-0.74,1.94-0.74,2.67,0l0.36,0.36C81.81,67.01,81.81,68.2,81.07,68.94z M89.36,35.16c-4.84,0-8.77-3.92-8.77-8.76
			c0-4.84,3.93-8.76,8.77-8.76c4.84,0,8.76,3.92,8.76,8.76C98.12,31.24,94.2,35.16,89.36,35.16z"/>
		<path class="st0" d="M21.13,99.19L7.27,113.04c-0.74,0.74-1.93,0.74-2.67,0h0c-0.74-0.74-0.74-1.93,0-2.67l13.85-13.85
			c0.74-0.74,1.93-0.74,2.67,0h0C21.86,97.25,21.86,98.45,21.13,99.19z"/>
		<path class="st0" d="M17.78,87.88l-7.15,7.15c-0.74,0.74-1.93,0.74-2.67,0h0c-0.74-0.74-0.74-1.93,0-2.67l7.15-7.15
			c0.74-0.74,1.93-0.74,2.67,0l0,0C18.52,85.95,18.52,87.15,17.78,87.88z"/>
		<path class="st0" d="M33.29,101.03L22.22,112.1c-0.74,0.74-1.93,0.74-2.67,0h0c-0.74-0.74-0.74-1.93,0-2.67l11.07-11.07
			c0.74-0.74,1.93-0.74,2.67,0h0C34.03,99.1,34.03,100.29,33.29,101.03z"/>
	</g>
</g>
</svg>
